<?xml version="1.0" standalone="no"?>
<!DOCTYPE svg PUBLIC "-//W3C//DTD SVG 20010904//EN"
 "http://www.w3.org/TR/2001/REC-SVG-20010904/DTD/svg10.dtd">
<svg version="1.0" xmlns="http://www.w3.org/2000/svg"
 width="200.000000pt" height="200.000000pt" viewBox="0 0 200.000000 200.000000"
 preserveAspectRatio="xMidYMid meet">
<metadata>
</metadata>
<g transform="translate(0.000000,200.000000) scale(0.100000,-0.100000)"
fill="#e04e4b" stroke="none">
<path d="M273 1696 c3 -8 22 -79 43 -158 l37 -143 416 -417 416 -418 -58 -58
-57 -58 55 -54 55 -55 93 93 92 92 132 -132 133 -132 50 49 50 49 -132 133
-133 133 90 90 89 90 -54 55 -54 55 -61 -60 -60 -60 -414 414 -414 414 -151
46 c-84 25 -155 46 -160 46 -4 0 -6 -6 -3 -14z"/>
<path d="M1603 1652 l-153 -47 -180 -180 c-99 -99 -180 -184 -180 -190 0 -6
50 -60 110 -120 l110 -110 188 188 187 187 39 147 c21 82 41 154 43 161 7 16
10 17 -164 -36z"/>
<path d="M450 845 l-54 -55 89 -90 90 -90 -133 -133 -132 -133 50 -49 50 -49
133 132 132 132 92 -92 93 -93 55 55 55 54 -57 58 -57 58 57 58 57 57 -115
115 -115 115 -57 -58 -58 -57 -60 60 -61 60 -54 -55z"/>
</g>
</svg>
